<svg xmlns="http://www.w3.org/2000/svg" width="25" height="24" viewBox="0 0 25 24">
    <defs>
        <filter id="b2d5r9p07a">
            <feColorMatrix in="SourceGraphic" values="0 0 0 0 1.000000 0 0 0 0 1.000000 0 0 0 0 1.000000 0 0 0 1.000000 0"/>
        </filter>
    </defs>
    <g fill="none" fill-rule="evenodd" stroke-linecap="round" stroke-linejoin="round">
        <g filter="url(#b2d5r9p07a)" transform="translate(-728 -16)">
            <g>
                <g stroke="#3A3A3A" stroke-width="1.5">
                    <path d="M.454 13.257L13.545.7M13.546 13.257L.455.7" transform="translate(728 16) translate(5 5)"/>
                </g>
            </g>
        </g>
    </g>
</svg>
